…
### Agglomerating the three datasets

For users of the [tidyverse](https://tidyverse.org), it's frequently easiest to work with long-form
melted datasets, where each row is a unique observation or data point. 
The unique reference in these three datasets is the count of a feature in a particular sample. 
Therefore, we can create a dataframe where each row is this unique combination of feature + sample + count, with additional columns describing the sample and feature further.


```r
agg <- agglomerated(features, samples, taxa, "sample_id")
print(agg)
```

```
## # A tibble: 1,024 x 12
##    sample_id otu_id count study_group sample_type Kingdom  Phylum   Class 
##    <chr>     <chr>  <dbl> <fct>       <fct>       <fct>    <fct>    <fct> 
##  1 S_1       f_1       25 case        A           Bacteria Bactero… Bacte…
##  2 S_2       f_1       78 case        B           Bacteria Bactero… Bacte…
##  3 S_3       f_1       34 case        C           Bacteria Bactero… Bacte…
##  4 S_4       f_1       61 case        D           Bacteria Bactero… Bacte…
##  5 S_5       f_1      258 case        A           Bacteria Bactero… Bacte…
##  6 S_6       f_1       54 case        B           Bacteria Bactero… Bacte…
##  7 S_7       f_1       56 case        C           Bacteria Bactero… Bacte…
##  8 S_8       f_1       58 case        D           Bacteria Bactero… Bacte…
##  9 S_9       f_1       48 control     A           Bacteria Bactero… Bacte…
## 10 S_10      f_1        7 control     B           Bacteria Bactero… Bacte…
## # ... with 1,014 more rows, and 4 more variables: Order <fct>,
## #   Family <fct>, Genus <fct>, Species <fct>
```

While this may seem overly repetitive (as the metadata is duplicated in lots of rows), R and dplyr actually handle this pretty well. 
Things only start breaking down with feature tables that have more than > 100,000,000 cells. 
What this buys you is the ability to use standard tidyverse verbs and operations easily. Here's how to convert your counts to proportions:


```r
agg <- agg %>%
  group_by(sample_id) %>%
  mutate(proportion = count/sum(count))
select(agg, sample_id, otu_id, count, proportion)
```

```
## # A tibble: 1,024 x 4
## # Groups:   sample_id [16]
##    sample_id otu_id count proportion
##    <chr>     <chr>  <dbl>      <dbl>
##  1 S_1       f_1       25    0.00429
##  2 S_2       f_1       78    0.0104 
##  3 S_3       f_1       34    0.00510
##  4 S_4       f_1       61    0.0101 
##  5 S_5       f_1      258    0.0434 
##  6 S_6       f_1       54    0.00811
##  7 S_7       f_1       56    0.00874
##  8 S_8       f_1       58    0.0120 
##  9 S_9       f_1       48    0.00635
## 10 S_10      f_1        7    0.00116
## # ... with 1,014 more rows
```
…
