Tools for tidy metagenomics • metaglomr
…
devtools::install_github("eclarke/metaglomr")

Short usage overview

suppressPackageStartupMessages(library(tidyverse))
library(metaglomr)

data(features)  # A counts matrix, with rows as samples and columns as features
data(samples)   # A dataframe with sample metadata
data(taxa)      # A dataframe or matrix with taxonomic annotations for features

# Combine all of these datasets into one long-form dataframe
(agg <- agglomerated(features, samples, taxa, "sample_id"))

## # A tibble: 1,024 x 12
##    sample_id otu_id count study_group sample_type Kingdom  Phylum   Class 
##    <chr>     <chr>  <dbl> <fct>       <fct>       <fct>    <fct>    <fct> 
##  1 S_1       f_1       25 case        A           Bacteria Bactero… Bacte…
##  2 S_2       f_1       78 case        B           Bacteria Bactero… Bacte…
##  3 S_3       f_1       34 case        C           Bacteria Bactero… Bacte…
##  4 S_4       f_1       61 case        D           Bacteria Bactero… Bacte…
##  5 S_5       f_1      258 case        A           Bacteria Bactero… Bacte…
##  6 S_6       f_1       54 case        B           Bacteria Bactero… Bacte…
##  7 S_7       f_1       56 case        C           Bacteria Bactero… Bacte…
##  8 S_8       f_1       58 case        D           Bacteria Bactero… Bacte…
##  9 S_9       f_1       48 control     A           Bacteria Bactero… Bacte…
## 10 S_10      f_1        7 control     B           Bacteria Bactero… Bacte…
## # ... with 1,014 more rows, and 4 more variables: Order <fct>,
## #   Family <fct>, Genus <fct>, Species <fct>
…
Agglomerating the three datasets

For users of the tidyverse, it’s frequently easiest to work with long-form melted datasets, where each row is a unique observation or data point. The unique reference in these three datasets is the count of a feature in a particular sample. Therefore, we can create a dataframe where each row is this unique combination of feature + sample + count, with additional columns describing the sample and feature further.

(agg <- agglomerated(features, samples, taxa, "sample_id"))

## # A tibble: 1,024 x 12
##    sample_id otu_id count study_group sample_type Kingdom  Phylum   Class 
##    <chr>     <chr>  <dbl> <fct>       <fct>       <fct>    <fct>    <fct> 
##  1 S_1       f_1       25 case        A           Bacteria Bactero… Bacte…
##  2 S_2       f_1       78 case        B           Bacteria Bactero… Bacte…
##  3 S_3       f_1       34 case        C           Bacteria Bactero… Bacte…
##  4 S_4       f_1       61 case        D           Bacteria Bactero… Bacte…
##  5 S_5       f_1      258 case        A           Bacteria Bactero… Bacte…
##  6 S_6       f_1       54 case        B           Bacteria Bactero… Bacte…
##  7 S_7       f_1       56 case        C           Bacteria Bactero… Bacte…
##  8 S_8       f_1       58 case        D           Bacteria Bactero… Bacte…
##  9 S_9       f_1       48 control     A           Bacteria Bactero… Bacte…
## 10 S_10      f_1        7 control     B           Bacteria Bactero… Bacte…
## # ... with 1,014 more rows, and 4 more variables: Order <fct>,
## #   Family <fct>, Genus <fct>, Species <fct>

While this may seem overly repetitive (as the metadata is duplicated in lots of rows), R and dplyr actually handle this pretty well. Things only start breaking down with feature tables that have more than > 100,000,000 cells. What this buys you is the ability to use standard tidyverse verbs and operations easily.

Examples

Subsetting

Subsetting is easy through the use of the filter verb:

filter(agg, study_group == "case")

## # A tibble: 512 x 12
##    sample_id otu_id count study_group sample_type Kingdom  Phylum  Class  
##    <chr>     <chr>  <dbl> <fct>       <fct>       <fct>    <fct>   <fct>  
##  1 S_1       f_1       25 case        A           Bacteria Bacter… Bacter…
##  2 S_2       f_1       78 case        B           Bacteria Bacter… Bacter…
##  3 S_3       f_1       34 case        C           Bacteria Bacter… Bacter…
##  4 S_4       f_1       61 case        D           Bacteria Bacter… Bacter…
##  5 S_5       f_1      258 case        A           Bacteria Bacter… Bacter…
##  6 S_6       f_1       54 case        B           Bacteria Bacter… Bacter…
##  7 S_7       f_1       56 case        C           Bacteria Bacter… Bacter…
##  8 S_8       f_1       58 case        D           Bacteria Bacter… Bacter…
##  9 S_1       f_2      112 case        A           Bacteria Proteo… Alphap…
## 10 S_2       f_2      402 case        B           Bacteria Proteo… Alphap…
## # ... with 502 more rows, and 4 more variables: Order <fct>, Family <fct>,
## #   Genus <fct>, Species <fct>

filter(agg, Phylum == "Bacteroidetes")

## # A tibble: 176 x 12
##    sample_id otu_id count study_group sample_type Kingdom  Phylum   Class 
##    <chr>     <chr>  <dbl> <fct>       <fct>       <fct>    <fct>    <fct> 
##  1 S_1       f_1       25 case        A           Bacteria Bactero… Bacte…
##  2 S_2       f_1       78 case        B           Bacteria Bactero… Bacte…
##  3 S_3       f_1       34 case        C           Bacteria Bactero… Bacte…
##  4 S_4       f_1       61 case        D           Bacteria Bactero… Bacte…
##  5 S_5       f_1      258 case        A           Bacteria Bactero… Bacte…
##  6 S_6       f_1       54 case        B           Bacteria Bactero… Bacte…
##  7 S_7       f_1       56 case        C           Bacteria Bactero… Bacte…
##  8 S_8       f_1       58 case        D           Bacteria Bactero… Bacte…
##  9 S_9       f_1       48 control     A           Bacteria Bactero… Bacte…
## 10 S_10      f_1        7 control     B           Bacteria Bactero… Bacte…
## # ... with 166 more rows, and 4 more variables: Order <fct>, Family <fct>,
## #   Genus <fct>, Species <fct>

Adding new columns

Here’s how to calculate proportions and add it to your dataframe:

agg <- agg %>%
  group_by(sample_id) %>%
  mutate(proportion = count/sum(count))

# Showing just a subset of the data:
select(agg, sample_id, otu_id, count, proportion)

## # A tibble: 1,024 x 4
## # Groups:   sample_id [16]
##    sample_id otu_id count proportion
##    <chr>     <chr>  <dbl>      <dbl>
##  1 S_1       f_1       25    0.00429
##  2 S_2       f_1       78    0.0104 
##  3 S_3       f_1       34    0.00510
##  4 S_4       f_1       61    0.0101 
##  5 S_5       f_1      258    0.0434 
##  6 S_6       f_1       54    0.00811
##  7 S_7       f_1       56    0.00874
##  8 S_8       f_1       58    0.0120 
##  9 S_9       f_1       48    0.00635
## 10 S_10      f_1        7    0.00116
## # ... with 1,014 more rows

Aggregating based on metadata:

Aggregate based on taxonomic rank:

agg %>% 
  group_by(sample_id, Phylum) %>%
  summarize(count = sum(count)) %>%
  ungroup() %>%
  # re-add sample data that got lost in the summarizing
  left_join(get_samples(agg, sample_id, study_group, sample_type))

## Joining, by = "sample_id"

## # A tibble: 80 x 5
##    sample_id Phylum         count study_group sample_type
##    <chr>     <fct>          <dbl> <fct>       <fct>      
##  1 S_1       Actinobacteria   363 case        A          
##  2 S_1       Bacteroidetes   1007 case        A          
##  3 S_1       Firmicutes      3616 case        A          
##  4 S_1       Proteobacteria   699 case        A          
##  5 S_1       Spirochaetes     136 case        A          
##  6 S_10      Actinobacteria   627 control     B          
##  7 S_10      Bacteroidetes   1169 control     B          
##  8 S_10      Firmicutes      2869 control     B          
##  9 S_10      Proteobacteria  1043 control     B          
## 10 S_10      Spirochaetes     323 control     B          
## # ... with 70 more rows
…
